sa
-----------
Log trace request 
2013-12-15 17:16:41
a:0:{}-----------



-----------
Log trace request 
2013-12-15 17:44:10
a:0:{}-----------



-----------
Log trace request 
2013-12-15 17:44:10
a:0:{}-----------



-----------
Log trace request 
2013-12-15 17:44:47
a:3:{s:5:"login";s:5:"login";s:5:"email";s:26:"rizki.a.aprilian@gmail.com";s:8:"password";s:5:"12345";}-----------



-----------
Log trace request 
2013-12-15 17:45:43
a:3:{s:5:"login";s:5:"login";s:5:"email";s:26:"rizki.a.aprilian@gmail.com";s:8:"password";s:5:"12345";}-----------



-----------
Log trace request 
2013-12-15 17:46:07
a:3:{s:5:"login";s:5:"login";s:5:"email";s:26:"rizki.a.aprilian@gmail.com";s:8:"password";s:4:"1234";}-----------



-----------
Log trace request 
2013-12-15 18:05:16
a:0:{}-----------



-----------
Log trace request 
2013-12-15 18:10:02
a:3:{s:5:"login";s:5:"login";s:5:"email";s:26:"rizki.a.aprilian@gmail.com";s:8:"password";s:5:"12345";}-----------



-----------
Log trace request 
2013-12-15 21:44:31
a:3:{s:5:"login";s:5:"login";s:5:"email";s:26:"rizki.a.aprilian@gmail.com";s:8:"password";s:5:"12345";}-----------



-----------
Log trace request 
2013-12-15 21:53:37
a:3:{s:5:"login";s:5:"login";s:5:"email";s:26:"rizki.a.aprilian@gmail.com";s:8:"password";s:5:"12345";}-----------



-----------
Log trace request 
2013-12-15 21:55:13
a:3:{s:5:"login";s:5:"login";s:5:"email";s:26:"rizki.a.aprilian@gmail.com";s:8:"password";s:5:"12345";}-----------



-----------
Log trace request 
2013-12-15 22:04:00
a:3:{s:5:"login";s:5:"login";s:5:"email";s:26:"rizki.a.aprilian@gmail.com";s:8:"password";s:5:"12345";}-----------



-----------
Log trace request 
2013-12-15 22:09:37
a:3:{s:5:"login";s:5:"login";s:5:"email";s:26:"rizki.a.aprilian@gmail.com";s:8:"password";s:5:"12345";}-----------



-----------
Log trace request 
2013-12-15 22:18:56
a:3:{s:5:"login";s:5:"login";s:5:"email";s:3:"sds";s:8:"password";s:3:"eef";}-----------



-----------
Log trace request 
2013-12-15 22:24:08
a:3:{s:5:"login";s:5:"login";s:5:"email";s:26:"rizki.a.aprilian@gmail.com";s:8:"password";s:5:"12345";}-----------



-----------
Log trace request 
2013-12-15 22:26:08
a:3:{s:5:"login";s:5:"login";s:5:"email";s:26:"rizki.a.aprilian@gmail.com";s:8:"password";s:5:"12345";}-----------



-----------
Log trace request 
2013-12-15 22:35:44
a:3:{s:5:"login";s:5:"login";s:5:"email";s:26:"rizki.a.aprilian@gmail.com";s:8:"password";s:5:"12345";}-----------



-----------
Log trace request 
2013-12-15 22:39:51
a:3:{s:5:"login";s:5:"login";s:5:"email";s:26:"rizki.a.aprilian@gmail.com";s:8:"password";s:5:"12345";}-----------



-----------
Log trace request 
2013-12-15 22:52:18
a:3:{s:5:"login";s:5:"login";s:5:"email";s:26:"rizki.a.aprilian@gmail.com";s:8:"password";s:5:"12345";}-----------



-----------
Log trace request 
2013-12-15 22:59:29
a:3:{s:5:"login";s:5:"login";s:5:"email";s:26:"rizki.a.aprilian@gmail.com";s:8:"password";s:5:"12345";}-----------



-----------
Log trace request 
2013-12-15 23:03:28
a:3:{s:5:"login";s:5:"login";s:5:"email";s:26:"rizki.a.aprilian@gmail.com";s:8:"password";s:5:"12345";}-----------



-----------
Log trace request 
2013-12-15 23:05:32
a:3:{s:5:"login";s:5:"login";s:5:"email";s:26:"rizki.a.aprilian@gmail.com";s:8:"password";s:5:"12345";}-----------



-----------
Log trace request 
2013-12-15 23:11:25
a:3:{s:5:"login";s:5:"login";s:5:"email";s:26:"rizki.a.aprilian@gmail.com";s:8:"password";s:5:"12345";}-----------



-----------
Log trace request 
2013-12-15 23:14:54
a:3:{s:5:"login";s:5:"login";s:5:"email";s:26:"rizki.a.aprilian@gmail.com";s:8:"password";s:6:"123456";}-----------



-----------
Log trace request 
2013-12-15 23:15:01
a:3:{s:5:"login";s:5:"login";s:5:"email";s:26:"rizki.a.aprilian@gmail.com";s:8:"password";s:5:"12345";}-----------



-----------
Log trace request 
2013-12-15 23:24:21
a:3:{s:5:"login";s:5:"login";s:5:"email";s:26:"rizki.a.aprilian@gmail.com";s:8:"password";s:5:"12345";}-----------



-----------
Log trace request 
2013-12-15 23:27:02
a:3:{s:5:"login";s:5:"login";s:5:"email";s:26:"rizki.a.aprilian@gmail.com";s:8:"password";s:5:"12345";}-----------



-----------
Log trace request 
2013-12-15 23:32:07
a:3:{s:5:"login";s:5:"login";s:5:"email";s:26:"rizki.a.aprilian@gmail.com";s:8:"password";s:5:"12345";}-----------



-----------
Log trace request 
2013-12-15 23:36:10
a:3:{s:5:"login";s:5:"login";s:5:"email";s:26:"rizki.a.aprilian@gmail.com";s:8:"password";s:5:"12345";}-----------



-----------
Log trace request 
2013-12-16 15:20:11
a:0:{}-----------



-----------
Log trace request 
2013-12-16 15:20:18
a:0:{}-----------



-----------
Log trace request 
2013-12-16 15:23:57
a:0:{}-----------



-----------
Log trace request 
2013-12-16 15:23:58
a:0:{}-----------



-----------
Log trace request 
2013-12-16 15:23:59
a:0:{}-----------



-----------
Log trace request 
2013-12-16 15:34:53
a:0:{}-----------



-----------
Log trace request 
2013-12-16 15:34:57
a:0:{}-----------



-----------
Log trace request 
2013-12-16 15:39:21
a:0:{}-----------



-----------
Log trace request 
2013-12-16 15:47:34
a:0:{}-----------



-----------
Log trace request 
2013-12-16 15:47:36
a:0:{}-----------


